ACTR3.Hs01029159_g1
ADRBK1.Hs01056345_g1
CDC42.Hs03044122_g1
CSDE1.Hs00918650_m1
CYTIP.Hs00188734_m1
TMBIM6.Hs01012081_m1
TMBIM6.Hs00162661_m1
TMBIM6.Hs01012082_g1
TPM3.Hs01900726_g1
USF2.Hs01100994_g1
